\relax 
\newlabel{sec:propuestas}{{}{1}}
\newlabel{sec:el_becario}{{}{1}}
\newlabel{sec:rapport}{{}{1}}
\newlabel{sec:tractor_tecnologico}{{}{1}}
\newlabel{sec:microcursos}{{}{1}}
\newlabel{sec:laboratorio_IoT}{{}{2}}
\newlabel{sec:tamiz_rubricado}{{}{2}}
\newlabel{sec:funeraria_de_papel}{{}{2}}
\newlabel{sec:formacion_interna}{{}{2}}
\newlabel{sec:departamentos}{{}{3}}
\newlabel{sec:aulas}{{}{3}}
\newlabel{sec:condiciones_fisicas}{{}{3}}
\newlabel{sec:condicionantes_metodologicos}{{}{3}}
\newlabel{sec:base_documental}{{}{4}}
\newlabel{sec:introducción}{{}{4}}
\newlabel{sec:innovacion_y_mejora}{{}{4}}
\newlabel{sec:el_mundo_hoy}{{}{5}}
\newlabel{sec:inculturacion}{{}{5}}
\newlabel{sec:carrera_tecnologica}{{}{6}}
\newlabel{sec:economia}{{}{7}}
\newlabel{sec:el_colegio_hoy}{{}{7}}
